Ref,Val,Package,PosX,PosY,Rot,Side
"C1","100n","CP_Axial_L10.0mm_D4.5mm_P15.00mm_Horizontal",175.500000,-106.680000,0.000000,top
"C2","100n","CP_Axial_L10.0mm_D4.5mm_P15.00mm_Horizontal",175.500000,-76.200000,0.000000,top
"C3","C","CP_Axial_L10.0mm_D4.5mm_P15.00mm_Horizontal",190.500000,-61.202500,0.000000,top
"C4","C","CP_Axial_L10.0mm_D4.5mm_P15.00mm_Horizontal",190.740000,-90.412500,0.000000,top
"IC1","L6399D","SOIC127P600X175-8N",188.132000,-69.215000,0.000000,top
"IC2","L6399D","SOIC127P600X175-8N",188.132000,-99.060000,0.000000,top
"J3","Conn_01x05","TerminalBlock_bornier-5_P5.08mm",167.640000,-75.184000,-90.000000,top
"J4","Screw_Terminal_01x04","TerminalBlock_Dinkle_DT-55-B01X-04_P10.00mm",242.570000,-70.010000,-90.000000,top
"Q1","STP105N3LL","TO255P460X1020X2008-3P",213.360000,-67.320000,90.000000,top
"Q2","STP105N3LL","TO255P460X1020X2008-3P",213.360000,-78.760000,90.000000,top
"Q3","STP105N3LL","TO255P460X1020X2008-3P",213.360000,-96.540000,90.000000,top
"Q4","STP105N3LL","TO255P460X1020X2008-3P",213.360000,-107.970000,90.000000,top
